<svg width="38" height="22" viewBox="0 0 38 22" fill="none" xmlns="http://www.w3.org/2000/svg">
<path d="M35.2431 21.9707H0.756923C0.603914 21.9707 0.457172 21.91 0.348978 21.8018C0.240784 21.6936 0.18 21.5468 0.18 21.3938C0.18 21.2408 0.240784 21.0941 0.348978 20.9859C0.457172 20.8777 0.603914 20.8169 0.756923 20.8169H34.7077L36.2031 1.7692L25.3846 8.04151C25.2524 8.11863 25.095 8.14007 24.947 8.10112C24.799 8.06217 24.6725 7.96602 24.5954 7.83382C24.5183 7.70162 24.4968 7.5442 24.5358 7.39619C24.5747 7.24818 24.6709 7.1217 24.8031 7.04459L36.5954 0.209202C36.6852 0.15507 36.7882 0.126465 36.8931 0.126465C36.998 0.126465 37.1009 0.15507 37.1908 0.209202C37.2801 0.264288 37.3524 0.343052 37.3996 0.436748C37.4469 0.530443 37.4673 0.635404 37.4585 0.739972L35.8431 21.4261C35.8347 21.5775 35.7671 21.7196 35.6548 21.8215C35.5425 21.9234 35.3946 21.977 35.2431 21.9707Z" fill="black"/>
</svg>
