<svg width="76" height="76" viewBox="0 0 76 76" fill="none" xmlns="http://www.w3.org/2000/svg">
<path d="M38.2266 74.4023C58.4292 74.4023 74.8066 58.0249 74.8066 37.8223C74.8066 17.6196 58.4292 1.24219 38.2266 1.24219C18.0239 1.24219 1.64648 17.6196 1.64648 37.8223C1.64648 58.0249 18.0239 74.4023 38.2266 74.4023Z" stroke="black" stroke-width="2" stroke-miterlimit="10"/>
</svg>
