<svg width="21" height="18" viewBox="0 0 21 18" fill="none" xmlns="http://www.w3.org/2000/svg">
<path d="M19.3236 15.8148V16.2402C14.8219 14.5668 9.47988 14.4947 3.92167 16.075C3.30996 14.377 2.60156 12.7352 1.84746 11.125C5.71465 9.66953 12.9533 6.3209 13.9641 2.2832C17.3869 5.96039 19.3003 10.7912 19.3236 15.8148Z" fill="white" stroke="black" stroke-width="2" stroke-miterlimit="10"/>
</svg>
